{
	"ships": [
		{
			"name": "Anaconda",
			"manufacturer": "Falcon DeLacy",
		},
		{
			"name": "Asp",
		},
		{
			"name": "Cobra Mk III",
			"manufacturer": "Falcon DeLacy",
			"mass": 180,
			"value": 279720,
			"insurance": 13986,
			"outfit": [
				{"type": "Medium Hardpoint", "clas": 2},
				{"type": "Medium Hardpoint", "clas": 2},
				{"type": "Small Hardpoint", "clas": 1},
				{"type": "Small Hardpoint", "clas": 1},
				{"type": "Utility Mount", "clas": 0},
				{"type": "Utility Mount", "clas": 0},
				{"type": "Bulkheads", "clas": 8},
				{"type": "Reactor Bay", "clas": 3},
				{"type": "Thruster Mounting", "clas": 3},
				{"type": "Frame Shift Drive Housing", "clas": 3},
				{"type": "Environmental Control", "clas": 2},
				{"type": "Power Coupling", "clas": 3},
				{"type": "Sensor Suite", "clas": 3},
				{"type": "Fuel Store", "clas": 2},
				{"type": "Internal Compartment", "clas": 4},
				{"type": "Internal Compartment", "clas": 4},
				{"type": "Internal Compartment", "clas": 4},
				{"type": "Internal Compartment", "clas": 2},
				{"type": "Internal Compartment", "clas": 2},
				{"type": "Internal Compartment", "clas": 2}
			],
			"vendors": [
				"MacLean Station",
				"Aulin Enterprise"
				"Chango Dock",
			]
		},
		{
			"name": "Eagle Mk II",
			"manufacturer": "Core Dynamics",
			"mass": 51,
			"value": 44800,
			"insurance": 2240,
			"outfit": [
				{"type": "Small Hardpoint", "clas": 1},
				{"type": "Small Hardpoint", "clas": 1},
				{"type": "Small Hardpoint", "clas": 1},
				{"type": "Utility Mount", "clas": 0},
				{"type": "Bulkheads", "clas": 8},
				{"type": "Reactor Bay", "clas": 2},
				{"type": "Thruster Mounting", "clas": 3},
				{"type": "Frame Shift Drive Housing", "clas": 3},
				{"type": "Environmental Control", "clas": 1},
				{"type": "Power Coupling", "clas": 2},
				{"type": "Sensor Suite", "clas": 2},
				{"type": "Fuel Store", "clas": 2},
				{"type": "Internal Compartment", "clas": 3},
				{"type": "Internal Compartment", "clas": 2},
				{"type": "Internal Compartment", "clas": 1}
			],
			"vendors": [
				"Glashow Settlement",
				"MacLean Station",
				"Trevithick Hub",
				"Lefschetz Installation",
				"Aulin Enterprise"
			]
		},
		{
			"name": "Hauler",
			"manufacturer": "Zorgon Peterson",
		},
		{
			"name": "Type-6",
			"manufacturer": "Lakon Spaceways",
			"vendors": [
				"Vonarburg Co-operative",
				"Aulin Enterprise"
			],
		},
		{
			"name": "Type-9 Heavy",
			"manufacturer": "Lakon Spaceways",
		},
		{
			"name": "Sidewinder Mk I",
			"manufacturer": "Falcon DeLacy",
			"mass": 22,
			"value": 32000,
			"insurance": 1600,
			"outfit": [
				{"type": "Small Hardpoint", "clas": 1},
				{"type": "Small Hardpoint", "clas": 1},
				{"type": "Utility Mount", "clas": 0},
				{"type": "Utility Mount", "clas": 0},
				{"type": "Bulkheads", "clas": 8},
				{"type": "Reactor Bay", "clas": 2},
				{"type": "Thruster Mounting", "clas": 2},
				{"type": "Frame Shift Drive Housing", "clas": 2},
				{"type": "Environmental Control", "clas": 1},
				{"type": "Power Coupling", "clas": 1},
				{"type": "Sensor Suite", "clas": 1},
				{"type": "Fuel Store", "clas": 1},
				{"type": "Internal Compartment", "clas": 2},
				{"type": "Internal Compartment", "clas": 2},
				{"type": "Internal Compartment", "clas": 1}
			],
			"vendors": [
				"Hume Depot",
				"Glashow Settlement",
				"MacLean Station",
				"Trevithick Hub",
				"Lefschetz Installation",
				"Hume Depot",
				"Aulin Enterprise"
			]
		},
		{
			"name": "Viper Mk III",
			"manufacturer": "Falcon DeLacy",
			"mass": 64,
			"value": 142940,
			"insurance": 7147,
			"outfit": [
				{"type": "Medium Hardpoint", "clas": 2},
				{"type": "Medium Hardpoint", "clas": 2},
				{"type": "Small Hardpoint", "clas": 1},
				{"type": "Small Hardpoint", "clas": 1},
				{"type": "Utility Mount", "clas": 0},
				{"type": "Utility Mount", "clas": 0},
				{"type": "Bulkheads", "clas": 8},
				{"type": "Reactor Bay", "clas": 3},
				{"type": "Thruster Mounting", "clas": 3},
				{"type": "Frame Shift Drive Housing", "clas": 3},
				{"type": "Environmental Control", "clas": 2},
				{"type": "Power Coupling", "clas": 3},
				{"type": "Sensor Suite", "clas": 3},
				{"type": "Fuel Store", "clas": 2},
				{"type": "Internal Compartment", "clas": 3},
				{"type": "Internal Compartment", "clas": 3},
				{"type": "Internal Compartment", "clas": 2},
				{"type": "Internal Compartment", "clas": 1}
			],
			"vendors": [
				"Glashow Settlement",
				"MacLean Station",
				"Trevithick Hub",
				"Lefschetz Installation",
				"Aulin Enterprise"
			]
		}
	]
}
